{
    "code": 1,
    "msg": "success",
    
    "result": {
        "pageInfo": {
        "totalPage": 3,
        "totalCount": 28,
        "currentPage": 1
    },
        "detail": [
            {
                "date": "2017.03.14",
                "time": "01:10",
                "name": "二十一支队",
                "content": "2017年3月20日，于重庆市渝中区，侦破诈电信骗 案件1起，抓获10人，抓获10人，涉案金额82599 元，缴获毒品22公斤"
            },
            {
               "date": "2017.03.14",
                "time": "01:10",
                "name": "二十一支队",
                "content": "2017年3月20日，于重庆市渝中区，侦破2017年3月20日，于重庆市渝中区，侦破诈电信骗 案件1起，抓获10人，抓2017年3月20日，于重庆市渝中区，侦破诈电信骗 案件1起，抓获10人，抓2017年3月20日，于重庆市渝中区，侦破诈电信骗 案件1起，抓获10人，抓诈电信骗 案件1起，抓获10人，抓获10人，涉案金额82599 元，缴获毒品22公斤"
            },
              {
                "date": "2017.03.14",
                "time": "01:10",
                "name": "二十一支队",
                "content": "2017年3月20日，于重庆市渝中区，侦破诈电信骗 案件1起，抓获10人，抓获10人，涉案金额82599 元，缴获毒品22公斤"
            },
            {
               "date": "2017.03.14",
                "time": "01:10",
                "name": "二十一支队",
                "content": "2017年3月20日，于重庆市渝中区，侦破2017年3月20日，于重庆市渝中区，侦破诈电信骗 案件1起，抓获10人，抓2017年3月20日，于重庆市渝中区，侦破诈电信骗 案件1起，抓获10人，抓2017年3月20日，于重庆市渝中区，侦破诈电信骗 案件1起，抓获10人，抓诈电信骗 案件1起，抓获10人，抓获10人，涉案金额82599 元，缴获毒品22公斤"
            }
        ],
        "list": [
            {
                "date": "2017.03.14",
                "time": "01:10",
                "name": "二十一支队",
                "case": "10",
                "person": "10",
                "money": "3008",
                "drug": "30",
                "gun": "105",
                "bullet": "2001"
            },{
              "date": "2017.03.14",
                "time": "01:10",
                "name": "二十一支队",
                "case": "10",
                "person": "10",
                "money": "3008",
                "drug": "30",
                "gun": "105",
                "bullet": "2001"
            },{
              "date": "2017.03.14",
                "time": "01:10",
                "name": "二十一支队",
                "case": "10",
                "person": "10",
                "money": "3008",
                "drug": "30",
                "gun": "105",
                "bullet": "2001"
            },{
              "date": "2017.03.14",
                "time": "01:10",
                "name": "二十一支队",
                "case": "10",
                "person": "10",
                "money": "3008",
                "drug": "30",
                "gun": "105",
                "bullet": "2001"
            }
        ]
    }
}