{
    "code": 1,
    "msg": "success",
    "result": {
        "pageInfo": {
            "totalPage": 3,
            "totalCount": 28,
            "currentPage": 1
        },
        "policeOrders": [
            {
                "title": "标题标题111",
                "details": "详情详情",
                "state": 3
            },
            {
                "title": "标题标题222",
                "details": "详情详情",
                "state": 0
            },
            {
                "title": "标题标题333",
                "details": "详情详情",
                "state": 1
            },
            {
                "title": "标题标题444",
                "details": "详情详情",
                "state": 0
            },
            {
                "title": "标题标题444",
                "details": "详情详情",
                "state": 3
            },
            {
                "title": "标题标题444",
                "details": "详情详情",
                "state": 0
            },
            {
                "title": "标题标题444",
                "details": "详情详情",
                "state": 0
            },
            {
                "title": "标题标题444",
                "details": "详情详情",
                "state": 0
            },
            {
                "title": "标题标题444",
                "details": "详情详情",
                "state": 3
            },
            {
                "title": "标题标题444",
                "details": "详情详情",
                "state": 0
            }
        ],
        "importantInfo": [
            {
                "title": "标题标题2222",
                "details": "详情详情",
                "state": 0
            }
        ]
    }
}