{
  "code": 1,
  "msg": "success",
  "result": [
    {
      "troopsId": "96c51c7e-4e84-4294-aca6-ad86238c5edf",
      "troopsName": "十六支队",
      "time": "2017年3月20日",
      "area": "江北区",
      "detectiveCase": {
          "name": "电信",
          "value": 123
      },
      "firearms": 63,
      "capturedNum": 98,
      "bullet": 1350,
      "drug": 323,
      "bullet": 22,
      "amountInvolved": 234
    },
      {
        "troopsId": "59117d27-acdc-4ba1-b12e-8b076a7c3742",
        "troopsName": "万州区支队",
        "area": "渝中区",
        "time": "2017年3月20日",
        "detectiveCase": {
          "name": "电信",
          "value": 23
        },
        "firearms": 163,
        "capturedNum": 298,
        "bullet": 1350,
        "drug": 323,
        "bullet": 22,
        "amountInvolved": 234
    },{
     "troopsId": "ef14aa62-28b2-4bd8-9c66-0028b29be142",
    "troopsName": "三十支队",
     "time": "2017年3月20日",
      "area": "渝北区",
      "detectiveCase": {
          "name": "电信",
          "value": 13
      },
      "firearms": 163,
      "capturedNum": 298,
      "bullet": 1350,
      "drug": 323,
      "bullet": 22,
      "amountInvolved": 234
    }
  ],
  "pageInfo": {
    "totalPage": 10,
    "totalCount": 50,
    "currentPage": 1
   }
    
}